^C:\USERS\ROGER.BUJAN\DESKTOP\DUNGEONGAMEENTI\PROGRAMADORES\ROGER\DUNGEONGAME\DUNGEONGAME\DUNGEONGAME.CPP
/c /ZI /JMC /nologo /W3 /WX- /diagnostics:classic /sdl /Od /Oy- /D _MBCS /Gm- /EHsc /RTC1 /MDd /GS /fp:precise /permissive- /Zc:wchar_t /Zc:forScope /Zc:inline /Fo"DEBUG\\" /Fd"DEBUG\VC141.PDB" /Gd /TP /analyze- /FC C:\USERS\ROGER.BUJAN\DESKTOP\DUNGEONGAMEENTI\PROGRAMADORES\ROGER\DUNGEONGAME\DUNGEONGAME\DUNGEONGAME.CPP
^C:\USERS\USUARIO\DESKTOP\DUNGEONGAME_ENTI\PROGRAMADORES\ROGER\DUNGEONGAME\DUNGEONGAME\DUNGEONGAME.CPP
/c /ZI /JMC /nologo /W3 /WX- /diagnostics:classic /sdl /Od /Oy- /D _MBCS /Gm- /EHsc /RTC1 /MDd /GS /fp:precise /permissive- /Zc:wchar_t /Zc:forScope /Zc:inline /Fo"DEBUG\\" /Fd"DEBUG\VC141.PDB" /Gd /TP /analyze- /FC C:\USERS\USUARIO\DESKTOP\DUNGEONGAME_ENTI\PROGRAMADORES\ROGER\DUNGEONGAME\DUNGEONGAME\DUNGEONGAME.CPP
